  0
SECTION
  2
HEADER
  9
$ACADVER
  1
AC1009
  9
$INSBASE
 10
0.0
 20
0.0
 30
0.0
  9
$EXTMIN
 10
421.3251331920318989
 20
262.6498944579766999
 30
0.0
  9
$EXTMAX
 10
644.3251331920313305
 20
582.6498944579768704
 30
0.0
  9
$LIMMIN
 10
0.0
 20
0.0
  9
$LIMMAX
 10
420.0
 20
297.0
  9
$ORTHOMODE
 70
     0
  9
$REGENMODE
 70
     1
  9
$FILLMODE
 70
     1
  9
$QTEXTMODE
 70
     0
  9
$MIRRTEXT
 70
     0
  9
$DRAGMODE
 70
     2
  9
$LTSCALE
 40
1.0
  9
$OSMODE
 70
  4095
  9
$ATTMODE
 70
     1
  9
$TEXTSIZE
 40
2.5
  9
$TRACEWID
 40
1.0
  9
$TEXTSTYLE
  7
STANDARD
  9
$CLAYER
  8
0
  9
$CELTYPE
  6
BYLAYER
  9
$CECOLOR
 62
   256
  9
$DIMSCALE
 40
1.0
  9
$DIMASZ
 40
2.5
  9
$DIMEXO
 40
0.625
  9
$DIMDLI
 40
3.75
  9
$DIMRND
 40
0.0
  9
$DIMDLE
 40
0.0
  9
$DIMEXE
 40
1.25
  9
$DIMTP
 40
0.0
  9
$DIMTM
 40
0.0
  9
$DIMTXT
 40
2.5
  9
$DIMCEN
 40
2.5
  9
$DIMTSZ
 40
0.0
  9
$DIMTOL
 70
     0
  9
$DIMLIM
 70
     0
  9
$DIMTIH
 70
     0
  9
$DIMTOH
 70
     0
  9
$DIMSE1
 70
     0
  9
$DIMSE2
 70
     0
  9
$DIMTAD
 70
     1
  9
$DIMZIN
 70
     8
  9
$DIMBLK
  1

  9
$DIMASO
 70
     1
  9
$DIMSHO
 70
     1
  9
$DIMPOST
  1

  9
$DIMAPOST
  1

  9
$DIMALT
 70
     0
  9
$DIMALTD
 70
     3
  9
$DIMALTF
 40
0.03937007874016
  9
$DIMLFAC
 40
1.0
  9
$DIMTOFL
 70
     1
  9
$DIMTVP
 40
0.0
  9
$DIMTIX
 70
     0
  9
$DIMSOXD
 70
     0
  9
$DIMSAH
 70
     0
  9
$DIMBLK1
  1

  9
$DIMBLK2
  1

  9
$DIMSTYLE
  2
ISO-25
  9
$DIMCLRD
 70
     0
  9
$DIMCLRE
 70
     0
  9
$DIMCLRT
 70
     0
  9
$DIMTFAC
 40
1.0
  9
$DIMGAP
 40
0.625
  9
$LUNITS
 70
     2
  9
$LUPREC
 70
     4
  9
$SKETCHINC
 40
1.0
  9
$FILLETRAD
 40
0.0
  9
$AUNITS
 70
     0
  9
$AUPREC
 70
     0
  9
$MENU
  1
.
  9
$ELEVATION
 40
0.0
  9
$PELEVATION
 40
0.0
  9
$THICKNESS
 40
0.0
  9
$LIMCHECK
 70
     0
  9
$BLIPMODE
 70
     0
  9
$CHAMFERA
 40
0.0
  9
$CHAMFERB
 40
0.0
  9
$SKPOLY
 70
     0
  9
$TDCREATE
 40
2458655.7403472219593823
  9
$TDUPDATE
 40
2458656.4019791670143604
  9
$TDINDWG
 40
0.168587963
  9
$TDUSRTIMER
 40
0.168587963
  9
$USRTIMER
 70
     1
  9
$ANGBASE
 50
0.0
  9
$ANGDIR
 70
     0
  9
$PDMODE
 70
     0
  9
$PDSIZE
 40
0.0
  9
$PLINEWID
 40
0.0
  9
$COORDS
 70
     1
  9
$SPLFRAME
 70
     0
  9
$SPLINETYPE
 70
     6
  9
$SPLINESEGS
 70
     8
  9
$ATTDIA
 70
     1
  9
$ATTREQ
 70
     1
  9
$HANDLING
 70
     1
  9
$HANDSEED
  5
581
  9
$SURFTAB1
 70
     6
  9
$SURFTAB2
 70
     6
  9
$SURFTYPE
 70
     6
  9
$SURFU
 70
     6
  9
$SURFV
 70
     6
  9
$UCSNAME
  2

  9
$UCSORG
 10
0.0
 20
0.0
 30
0.0
  9
$UCSXDIR
 10
1.0
 20
0.0
 30
0.0
  9
$UCSYDIR
 10
0.0
 20
1.0
 30
0.0
  9
$PUCSNAME
  2

  9
$PUCSORG
 10
0.0
 20
0.0
 30
0.0
  9
$PUCSXDIR
 10
1.0
 20
0.0
 30
0.0
  9
$PUCSYDIR
 10
0.0
 20
1.0
 30
0.0
  9
$USERI1
 70
     0
  9
$USERI2
 70
     0
  9
$USERI3
 70
     0
  9
$USERI4
 70
     0
  9
$USERI5
 70
     0
  9
$USERR1
 40
0.0
  9
$USERR2
 40
0.0
  9
$USERR3
 40
0.0
  9
$USERR4
 40
0.0
  9
$USERR5
 40
0.0
  9
$WORLDVIEW
 70
     1
  9
$SHADEDGE
 70
     3
  9
$SHADEDIF
 70
    70
  9
$TILEMODE
 70
     1
  9
$MAXACTVP
 70
    64
  9
$PLIMCHECK
 70
     0
  9
$PEXTMIN
 10
0.0
 20
0.0
 30
0.0
  9
$PEXTMAX
 10
0.0
 20
0.0
 30
0.0
  9
$PLIMMIN
 10
0.0
 20
0.0
  9
$PLIMMAX
 10
12.0
 20
9.0
  9
$UNITMODE
 70
     0
  9
$VISRETAIN
 70
     1
  9
$PLINEGEN
 70
     0
  9
$PSLTSCALE
 70
     1
  0
ENDSEC
  0
SECTION
  2
TABLES
  0
TABLE
  2
VPORT
 70
     1
  0
VPORT
  2
*ACTIVE
 70
     0
 10
0.0
 20
0.0
 11
1.0
 21
1.0
 12
652.5745277467129881
 22
383.5041046338421893
 13
0.0
 23
0.0
 14
10.0
 24
10.0
 15
10.0
 25
10.0
 16
0.0
 26
0.0
 36
1.0
 17
0.0
 27
0.0
 37
0.0
 40
400.5195464913534806
 41
2.085714285714285
 42
50.0
 43
0.0
 44
0.0
 50
0.0
 51
0.0
 71
     0
 72
  1000
 73
     1
 74
     3
 75
     0
 76
     1
 77
     0
 78
     0
  0
ENDTAB
  0
TABLE
  2
LTYPE
 70
     1
  0
LTYPE
  2
CONTINUOUS
 70
     0
  3
Solid line
 72
    65
 73
     0
 40
0.0
  0
ENDTAB
  0
TABLE
  2
LAYER
 70
     3
  0
LAYER
  2
0
 70
     0
 62
     7
  6
CONTINUOUS
  0
LAYER
  2
CV_SPECIALE
 70
     0
 62
     7
  6
CONTINUOUS
  0
LAYER
  2
BASE
 70
     0
 62
     7
  6
CONTINUOUS
  0
ENDTAB
  0
TABLE
  2
STYLE
 70
     2
  0
STYLE
  2
STANDARD
 70
     0
 40
0.0
 41
1.0
 50
0.0
 71
     0
 42
2.5
  3
txt
  4

  0
STYLE
  2
ANNOTATIVE
 70
     0
 40
0.0
 41
1.0
 50
0.0
 71
     0
 42
2.5
  3
txt
  4

  0
ENDTAB
  0
TABLE
  2
VIEW
 70
     0
  0
ENDTAB
  0
TABLE
  2
UCS
 70
     0
  0
ENDTAB
  0
TABLE
  2
APPID
 70
     9
  0
APPID
  2
ACAD
 70
     0
  0
APPID
  2
ACADANNOTATIVE
 70
     0
  0
APPID
  2
ACAD_PSEXT
 70
     0
  0
APPID
  2
ACADANNOPO
 70
     0
  0
APPID
  2
ACAD_DSTYLE_DIMJAG
 70
     0
  0
APPID
  2
ACAD_DSTYLE_DIMTALN
 70
     0
  0
APPID
  2
ACAD_MLEADERVER
 70
     0
  0
APPID
  2
ACAD_NAV_VCDISPLAY
 70
     0
  0
APPID
  2
ACAECLAYERSTANDARD
 70
     0
  0
ENDTAB
  0
TABLE
  2
DIMSTYLE
 70
     3
  0
DIMSTYLE
  2
STANDARD
 70
     0
  3

  4

  5

  6

  7

 40
1.0
 41
0.18
 42
0.0625
 43
0.38
 44
0.18
 45
0.0
 46
0.0
 47
0.0
 48
0.0
140
0.18
141
0.09
142
0.0
143
25.3999999999999986
144
1.0
145
0.0
146
1.0
147
0.09
 71
     0
 72
     0
 73
     1
 74
     1
 75
     0
 76
     0
 77
     0
 78
     0
170
     0
171
     2
172
     0
173
     0
174
     0
175
     0
176
     0
177
     0
178
     0
  0
DIMSTYLE
  2
ANNOTATIVE
 70
     0
  3

  4

  5

  6

  7

 40
0.0
 41
2.5
 42
0.625
 43
3.75
 44
1.25
 45
0.0
 46
0.0
 47
0.0
 48
0.0
140
2.5
141
2.5
142
0.0
143
0.03937007874016
144
1.0
145
0.0
146
1.0
147
0.625
 71
     0
 72
     0
 73
     0
 74
     0
 75
     0
 76
     0
 77
     1
 78
     8
170
     0
171
     3
172
     1
173
     0
174
     0
175
     0
176
     0
177
     0
178
     0
  0
DIMSTYLE
  2
ISO-25
 70
     0
  3

  4

  5

  6

  7

 40
1.0
 41
2.5
 42
0.625
 43
3.75
 44
1.25
 45
0.0
 46
0.0
 47
0.0
 48
0.0
140
2.5
141
2.5
142
0.0
143
0.03937007874016
144
1.0
145
0.0
146
1.0
147
0.625
 71
     0
 72
     0
 73
     0
 74
     0
 75
     0
 76
     0
 77
     1
 78
     8
170
     0
171
     3
172
     1
173
     0
174
     0
175
     0
176
     0
177
     0
178
     0
  0
ENDTAB
  0
ENDSEC
  0
SECTION
  2
BLOCKS
  0
BLOCK
  8
0
  2
$MODEL_SPACE
 70
     0
 10
0.0
 20
0.0
 30
0.0
  3
$MODEL_SPACE
  1

  0
ENDBLK
  5
4D5
  8
0
  0
BLOCK
 67
     1
  8
0
  2
$PAPER_SPACE
 70
     0
 10
0.0
 20
0.0
 30
0.0
  3
$PAPER_SPACE
  1

  0
ENDBLK
  5
4D1
 67
     1
  8
0
  0
ENDSEC
  0
SECTION
  2
ENTITIES
  0
CIRCLE
  5
2F2
  8
CV_SPECIALE
 62
     2
 10
456.6251331920319103
 20
547.6498944579769841
 30
0.0
 40
12.0
  0
CIRCLE
  5
2F3
  8
CV_SPECIALE
 62
     2
 10
456.6251331920319103
 20
302.6498944579766999
 30
0.0
 40
3.0
  0
CIRCLE
  5
2F4
  8
CV_SPECIALE
 62
     2
 10
583.625133192031285
 20
302.6498944579765862
 30
0.0
 40
3.0
  0
CIRCLE
  5
2F5
  8
CV_SPECIALE
 62
     2
 10
456.6251331920319103
 20
443.3498944579769159
 30
0.0
 40
1.5
  0
CIRCLE
  5
2F6
  8
CV_SPECIALE
 62
     2
 10
507.4251331920319217
 20
443.3498944579769159
 30
0.0
 40
1.5
  0
CIRCLE
  5
2F7
  8
CV_SPECIALE
 62
     2
 10
558.2251331920314215
 20
443.3498944579769159
 30
0.0
 40
1.5
  0
CIRCLE
  5
2F8
  8
CV_SPECIALE
 62
     2
 10
609.0251331920325129
 20
443.3498944579769159
 30
0.0
 40
1.5
  0
CIRCLE
  5
2F9
  8
CV_SPECIALE
 62
     2
 10
608.0251331920325129
 20
357.1498944579765862
 30
0.0
 40
1.5
  0
CIRCLE
  5
2FA
  8
CV_SPECIALE
 62
     2
 10
443.9251331920319785
 20
456.0498944579769045
 30
0.0
 40
7.5
  0
CIRCLE
  5
2FB
  8
CV_SPECIALE
 62
     2
 10
469.3251331920318989
 20
456.0498944579769045
 30
0.0
 40
7.5
  0
CIRCLE
  5
2FC
  8
CV_SPECIALE
 62
     2
 10
494.7251331920318762
 20
456.0498944579769045
 30
0.0
 40
7.5
  0
CIRCLE
  5
2FD
  8
CV_SPECIALE
 62
     2
 10
520.1251331920323082
 20
456.0498944579769045
 30
0.0
 40
7.5
  0
CIRCLE
  5
2FE
  8
CV_SPECIALE
 62
     2
 10
545.5251331920325129
 20
456.0498944579769045
 30
0.0
 40
7.5
  0
CIRCLE
  5
2FF
  8
CV_SPECIALE
 62
     2
 10
570.9251331920324901
 20
456.0498944579769045
 30
0.0
 40
7.5
  0
CIRCLE
  5
300
  8
CV_SPECIALE
 62
     2
 10
596.3251331920313305
 20
456.0498944579769045
 30
0.0
 40
7.5
  0
CIRCLE
  5
301
  8
CV_SPECIALE
 62
     2
 10
621.7251331920314215
 20
456.0498944579769045
 30
0.0
 40
7.5
  0
CIRCLE
  5
302
  8
CV_SPECIALE
 62
     2
 10
426.3251331920320126
 20
464.4798944579767976
 30
0.0
 40
2.5
  0
CIRCLE
  5
303
  8
CV_SPECIALE
 62
     2
 10
426.3251331920320126
 20
390.819894457977
 30
0.0
 40
2.5
  0
CIRCLE
  5
304
  8
CV_SPECIALE
 62
     2
 10
639.3251331920313305
 20
464.4798944579767976
 30
0.0
 40
2.5
  0
CIRCLE
  5
305
  8
CV_SPECIALE
 62
     2
 10
639.3251331920313305
 20
390.819894457977
 30
0.0
 40
2.5
  0
CIRCLE
  5
306
  8
CV_SPECIALE
 62
     2
 10
609.0251331920316034
 20
547.6498944579769841
 30
0.0
 40
12.0
  0
CIRCLE
  5
307
  8
CV_SPECIALE
 62
     2
 10
532.8251331920315579
 20
577.6498944579769841
 30
0.0
 40
2.5
  0
CIRCLE
  5
308
  8
CV_SPECIALE
 62
     2
 10
532.8251331920323537
 20
267.6498944579765862
 30
0.0
 40
2.5
  0
CIRCLE
  5
309
  8
CV_SPECIALE
  6
BYBLOCK
 62
     2
 10
494.725133192031592
 20
547.6498944579769841
 30
0.0
 40
12.0
  0
CIRCLE
  5
30A
  8
CV_SPECIALE
  6
BYBLOCK
 62
     2
 10
570.9251331920321491
 20
547.6498944579769841
 30
0.0
 40
12.0
  0
CIRCLE
  5
30B
  8
CV_SPECIALE
  6
BYBLOCK
 62
     2
 10
482.0251331920318876
 20
302.6498944579766999
 30
0.0
 40
12.0
  0
CIRCLE
  5
30C
  8
CV_SPECIALE
  6
BYBLOCK
 62
     2
 10
507.4251331920319217
 20
302.6498944579766999
 30
0.0
 40
3.0
  0
CIRCLE
  5
30D
  8
CV_SPECIALE
  6
BYBLOCK
 62
     2
 10
532.8251331920318989
 20
302.6498944579766999
 30
0.0
 40
12.0
  0
CIRCLE
  5
30E
  8
CV_SPECIALE
  6
BYBLOCK
 62
     2
 10
558.2251331920318762
 20
302.6498944579766999
 30
0.0
 40
3.0
  0
CIRCLE
  5
30F
  8
CV_SPECIALE
 62
     2
 10
443.9251331920319217
 20
506.849894457976518
 30
0.0
 40
3.7000000000000002
  0
CIRCLE
  5
310
  8
CV_SPECIALE
 62
     2
 10
443.9251331920319217
 20
481.449894457976427
 30
0.0
 40
3.7000000000000002
  0
CIRCLE
  5
311
  8
CV_SPECIALE
 62
     2
 10
469.3251331920317284
 20
506.849894457976518
 30
0.0
 40
3.7000000000000002
  0
CIRCLE
  5
312
  8
CV_SPECIALE
 62
     2
 10
469.3251331920320126
 20
481.449894457976427
 30
0.0
 40
3.7000000000000002
  0
CIRCLE
  5
313
  8
CV_SPECIALE
 62
     2
 10
494.7251331920318762
 20
506.849894457976518
 30
0.0
 40
3.7000000000000002
  0
CIRCLE
  5
314
  8
CV_SPECIALE
 62
     2
 10
494.7251331920318762
 20
481.449894457976427
 30
0.0
 40
3.7000000000000002
  0
CIRCLE
  5
315
  8
CV_SPECIALE
 62
     2
 10
520.1251331920323082
 20
506.849894457976518
 30
0.0
 40
3.7000000000000002
  0
CIRCLE
  5
316
  8
CV_SPECIALE
 62
     2
 10
520.1251331920324219
 20
481.449894457976427
 30
0.0
 40
3.7000000000000002
  0
CIRCLE
  5
317
  8
CV_SPECIALE
 62
     2
 10
545.5251331920326265
 20
506.849894457976518
 30
0.0
 40
3.7000000000000002
  0
CIRCLE
  5
318
  8
CV_SPECIALE
 62
     2
 10
545.5251331920321718
 20
481.449894457976427
 30
0.0
 40
3.7000000000000002
  0
CIRCLE
  5
319
  8
CV_SPECIALE
 62
     2
 10
570.9251331920321491
 20
506.849894457976518
 30
0.0
 40
3.7000000000000002
  0
CIRCLE
  5
31A
  8
CV_SPECIALE
 62
     2
 10
570.9251331920324901
 20
481.449894457976427
 30
0.0
 40
3.7000000000000002
  0
CIRCLE
  5
31B
  8
CV_SPECIALE
 62
     2
 10
596.3251331920313305
 20
506.849894457976518
 30
0.0
 40
3.7000000000000002
  0
CIRCLE
  5
31C
  8
CV_SPECIALE
 62
     2
 10
621.7251331920314215
 20
506.849894457976518
 30
0.0
 40
3.7000000000000002
  0
CIRCLE
  5
31D
  8
CV_SPECIALE
 62
     2
 10
596.3251331920312168
 20
481.449894457976427
 30
0.0
 40
3.7000000000000002
  0
CIRCLE
  5
31E
  8
CV_SPECIALE
 62
     2
 10
621.7251331920310804
 20
481.449894457976427
 30
0.0
 40
3.7000000000000002
  0
CIRCLE
  5
31F
  8
CV_SPECIALE
  6
BYBLOCK
 62
     2
 10
595.3251331920312168
 20
369.8498944579764043
 30
0.0
 40
10.0
  0
CIRCLE
  5
320
  8
CV_SPECIALE
  6
BYBLOCK
 62
     2
 10
582.6251331920317398
 20
382.5498944579765066
 30
0.0
 40
1.5
  0
CIRCLE
  5
321
  8
CV_SPECIALE
 62
     2
 10
545.5251331920325129
 20
430.6498944579764725
 30
0.0
 40
7.5
  0
CIRCLE
  5
322
  8
CV_SPECIALE
 62
     2
 10
570.9251331920324901
 20
430.6498944579764725
 30
0.0
 40
7.5
  0
CIRCLE
  5
323
  8
CV_SPECIALE
 62
     2
 10
596.3251331920313305
 20
430.6498944579764725
 30
0.0
 40
7.5
  0
CIRCLE
  5
324
  8
CV_SPECIALE
 62
     2
 10
621.7251331920314215
 20
430.6498944579764725
 30
0.0
 40
7.5
  0
CIRCLE
  5
325
  8
CV_SPECIALE
  6
BYBLOCK
 62
     2
 10
494.725133192031592
 20
351.449894457976427
 30
0.0
 40
4.0999999999999979
  0
CIRCLE
  5
326
  8
CV_SPECIALE
 62
     2
 10
545.5251331920326265
 20
405.2498944579763815
 30
0.0
 40
4.0999999999999979
  0
CIRCLE
  5
327
  8
CV_SPECIALE
 62
     2
 10
570.9251331920324901
 20
351.4498944579767112
 30
0.0
 40
1.5
  0
LINE
  5
328
  8
CV_SPECIALE
  6
BYBLOCK
 62
     3
 10
624.3251331920313305
 20
577.6498944579769841
 30
0.0
 11
634.3251331920313305
 21
567.6498944579768704
 31
0.0
  0
LINE
  5
329
  8
CV_SPECIALE
  6
BYBLOCK
 62
     3
 10
634.3251331920313305
 20
527.6498944579769841
 30
0.0
 11
644.3251331920313305
 21
517.6498944579768704
 31
0.0
  0
LINE
  5
32A
  8
CV_SPECIALE
  6
BYBLOCK
 62
     3
 10
634.3251331920313305
 20
567.6498944579768704
 30
0.0
 11
634.3251331920313305
 21
527.6498944579769841
 31
0.0
  0
LINE
  5
32B
  8
CV_SPECIALE
  6
BYBLOCK
 62
     3
 10
441.3251331920318989
 20
577.6498944579769841
 30
0.0
 11
431.3251331920318989
 21
567.6498944579768704
 31
0.0
  0
LINE
  5
32C
  8
CV_SPECIALE
  6
BYBLOCK
 62
     3
 10
431.3251331920318989
 20
527.6498944579769841
 30
0.0
 11
421.3251331920320126
 21
517.6498944579768704
 31
0.0
  0
LINE
  5
32D
  8
CV_SPECIALE
  6
BYBLOCK
 62
     3
 10
436.3251331920318989
 20
282.6498944579766999
 30
0.0
 11
436.3251331920318989
 21
322.6498944579768136
 31
0.0
  0
LINE
  5
32E
  8
CV_SPECIALE
  6
BYBLOCK
 62
     3
 10
431.3251331920318989
 20
567.6498944579768704
 30
0.0
 11
431.3251331920318989
 21
527.6498944579769841
 31
0.0
  0
ARC
  5
32F
  8
CV_SPECIALE
 62
     2
 10
520.1251331920324219
 20
376.849894457976518
 30
0.0
 40
3.6999999999999171
 50
293.9165344218553173
 51
66.0834655781446827
  0
ARC
  5
330
  8
CV_SPECIALE
 62
     2
 10
520.1251331920323082
 20
376.849894457976518
 30
0.0
 40
3.699999999999926
 50
113.9165344218553031
 51
246.0834655781445974
  0
ARC
  5
331
  8
CV_SPECIALE
 62
     2
 10
443.9251331920319785
 20
376.8498944579765748
 30
0.0
 40
3.6999999999999171
 50
293.9165344218553173
 51
66.0834655781446827
  0
ARC
  5
332
  8
CV_SPECIALE
 62
     2
 10
443.9251331920319785
 20
376.8498944579765748
 30
0.0
 40
3.699999999999926
 50
113.9165344218553031
 51
246.0834655781445974
  0
ARC
  5
333
  8
CV_SPECIALE
 62
     2
 10
443.9251331920319785
 20
341.5498944579766771
 30
0.0
 40
1.5
 50
180.0
 51
0.0
  0
LINE
  5
334
  8
CV_SPECIALE
  6
BYBLOCK
 62
     2
 10
442.4251331920319785
 20
373.4675875529190989
 30
0.0
 11
442.4251331920319785
 21
341.5498944579766771
 31
0.0
  0
LINE
  5
335
  8
CV_SPECIALE
  6
BYBLOCK
 62
     2
 10
445.4251331920319217
 20
373.4675875529190989
 30
0.0
 11
445.4251331920319217
 21
341.5498944579766771
 31
0.0
  0
CIRCLE
  5
336
  8
CV_SPECIALE
  6
BYBLOCK
 62
     2
 10
469.3251331920318989
 20
376.8498944579765748
 30
0.0
 40
4.0999999999999979
  0
CIRCLE
  5
337
  8
CV_SPECIALE
  6
BYBLOCK
 62
     2
 10
469.3251331920318989
 20
351.4498944579765976
 30
0.0
 40
12.0
  0
CIRCLE
  5
338
  8
CV_SPECIALE
  6
BYBLOCK
 62
     2
 10
494.725133192031592
 20
376.849894457976518
 30
0.0
 40
12.0
  0
LINE
  5
339
  8
CV_SPECIALE
  6
BYBLOCK
 62
     2
 10
445.4251331920319217
 20
412.1498944579764157
 30
0.0
 11
445.4251331920319217
 21
380.2322013630341075
 31
0.0
  0
LINE
  5
33A
  8
CV_SPECIALE
  6
BYBLOCK
 62
     2
 10
442.4251331920319785
 20
412.1498944579764157
 30
0.0
 11
442.4251331920319785
 21
380.2322013630341075
 31
0.0
  0
ARC
  5
33B
  8
CV_SPECIALE
 62
     2
 10
443.9251331920319785
 20
412.1498944579764157
 30
0.0
 40
1.5
 50
0.0
 51
180.0
  0
ARC
  5
33C
  8
CV_SPECIALE
 62
     2
 10
520.1251331920324219
 20
341.5498944579766203
 30
0.0
 40
1.5
 50
180.0
 51
0.0
  0
LINE
  5
33D
  8
CV_SPECIALE
  6
BYBLOCK
 62
     2
 10
518.6251331920324219
 20
373.4675875529190989
 30
0.0
 11
518.6251331920324219
 21
341.5498944579766203
 31
0.0
  0
LINE
  5
33E
  8
CV_SPECIALE
  6
BYBLOCK
 62
     2
 10
521.6251331920324219
 20
373.4675875529190989
 30
0.0
 11
521.6251331920324219
 21
341.5498944579766203
 31
0.0
  0
LINE
  5
33F
  8
CV_SPECIALE
  6
BYBLOCK
 62
     2
 10
521.6251331920324219
 20
412.149894457976302
 30
0.0
 11
521.6251331920324219
 21
380.2322013630341075
 31
0.0
  0
LINE
  5
340
  8
CV_SPECIALE
  6
BYBLOCK
 62
     2
 10
518.6251331920324219
 20
412.149894457976302
 30
0.0
 11
518.6251331920324219
 21
380.2322013630341075
 31
0.0
  0
ARC
  5
341
  8
CV_SPECIALE
 62
     2
 10
520.1251331920324219
 20
412.149894457976302
 30
0.0
 40
1.5
 50
0.0
 51
180.0
  0
CIRCLE
  5
342
  8
CV_SPECIALE
  6
BYBLOCK
 62
     2
 10
443.9251331920319785
 20
430.6498944579764725
 30
0.0
 40
7.5
  0
CIRCLE
  5
343
  8
CV_SPECIALE
  6
BYBLOCK
 62
     2
 10
469.3251331920320126
 20
430.6498944579764725
 30
0.0
 40
7.5
  0
CIRCLE
  5
344
  8
CV_SPECIALE
  6
BYBLOCK
 62
     2
 10
494.7251331920318762
 20
430.6498944579764725
 30
0.0
 40
7.5
  0
CIRCLE
  5
345
  8
CV_SPECIALE
  6
BYBLOCK
 62
     2
 10
520.1251331920323082
 20
430.6498944579764157
 30
0.0
 40
7.5
  0
LINE
  5
346
  8
CV_SPECIALE
  6
BYBLOCK
 62
     3
 10
644.3251331920313305
 20
362.6498944579766999
 30
0.0
 11
604.3251331920313305
 21
322.6498944579768136
 31
0.0
  0
LINE
  5
347
  8
CV_SPECIALE
  6
BYBLOCK
 62
     3
 10
604.3251331920313305
 20
322.6498944579768136
 30
0.0
 11
604.3251331920313305
 21
282.6498944579766999
 31
0.0
  0
LINE
  5
348
  8
CV_SPECIALE
  6
BYBLOCK
 62
     3
 10
421.3251331920318989
 20
337.6498944579766999
 30
0.0
 11
436.3251331920318989
 21
322.6498944579768136
 31
0.0
  0
LINE
  5
349
  8
CV_SPECIALE
  6
BYBLOCK
 62
     3
 10
644.3251331920313305
 20
517.6498944579768704
 30
0.0
 11
644.3251331920313305
 21
362.6498944579766999
 31
0.0
  0
LINE
  5
34A
  8
CV_SPECIALE
  6
BYBLOCK
 62
     3
 10
421.3251331920320126
 20
517.6498944579768704
 30
0.0
 11
421.3251331920318989
 21
337.6498944579766999
 31
0.0
  0
CIRCLE
  5
34B
  8
CV_SPECIALE
 62
     2
 10
463.5251331920318876
 20
402.2498944579766089
 30
0.0
 40
1.5
  0
CIRCLE
  5
34C
  8
CV_SPECIALE
 62
     2
 10
500.5251331920318876
 20
402.2498944579766089
 30
0.0
 40
1.5
  0
LINE
  5
34D
  8
CV_SPECIALE
  6
BYBLOCK
 62
     3
 10
441.3251331920318989
 20
577.6498944579769841
 30
0.0
 11
446.3251331920320126
 21
582.6498944579768704
 31
0.0
  0
LINE
  5
34E
  8
CV_SPECIALE
  6
BYBLOCK
 62
     3
 10
446.3251331920320126
 20
582.6498944579768704
 30
0.0
 11
619.3251331920313305
 21
582.6498944579768704
 31
0.0
  0
LINE
  5
34F
  8
CV_SPECIALE
  6
BYBLOCK
 62
     3
 10
619.3251331920313305
 20
582.6498944579768704
 30
0.0
 11
624.3251331920313305
 21
577.6498944579769841
 31
0.0
  0
CIRCLE
  5
350
  8
CV_SPECIALE
 62
     2
 10
517.8251396962175477
 20
547.6497041640649286
 30
0.0
 40
1.5
  0
CIRCLE
  5
351
  8
CV_SPECIALE
 62
     2
 10
547.825133527156936
 20
547.6689432811998586
 30
0.0
 40
1.5
  0
ARC
  5
352
  8
CV_SPECIALE
 62
     2
 10
537.3171599709347674
 20
543.1593237226327346
 30
0.0
 40
2.0
 50
269.9168534046074228
 51
0.0
  0
ARC
  5
353
  8
CV_SPECIALE
 62
     2
 10
528.3331132524399436
 20
552.1498910359164256
 30
0.0
 40
2.0
 50
90.0000000000065086
 51
180.0
  0
ARC
  5
354
  8
CV_SPECIALE
 62
     2
 10
528.3265897730499319
 20
543.1593237226327346
 30
0.0
 40
2.0
 50
180.0
 51
270.0
  0
ARC
  5
355
  8
CV_SPECIALE
 62
     2
 10
537.3236834503251202
 20
552.1498910359164256
 30
0.0
 40
2.0
 50
0.0
 51
89.7299693946741144
  0
LINE
  5
356
  8
CV_SPECIALE
 62
     2
 10
528.3331132524398299
 20
554.1498910359164256
 30
0.0
 11
537.3331092617193008
 21
554.1498688243128754
 31
0.0
  0
LINE
  5
357
  8
CV_SPECIALE
 62
     2
 10
528.3265897730499319
 20
541.1593237226327346
 30
0.0
 11
537.3142576082503865
 21
541.159325828560668
 31
0.0
  0
LINE
  5
358
  8
CV_SPECIALE
 62
     2
 10
539.3171599709349948
 20
543.1593237226328483
 30
0.0
 11
539.3236834503251202
 21
552.149891035916653
 31
0.0
  0
LINE
  5
359
  8
CV_SPECIALE
 62
     2
 10
526.3265897730499319
 20
543.1593237226327346
 30
0.0
 11
526.3331132524399436
 21
552.1498910359164256
 31
0.0
  0
LINE
  5
35A
  8
CV_SPECIALE
  6
BYBLOCK
 62
     3
 10
436.3251331920318989
 20
282.6498944579765862
 30
0.0
 11
456.3251331920317284
 21
262.6498944579766999
 31
0.0
  0
LINE
  5
35B
  8
CV_SPECIALE
  6
BYBLOCK
 62
     3
 10
456.3251331920317284
 20
262.6498944579766999
 30
0.0
 11
584.3251331920312168
 21
262.6498944579766999
 31
0.0
  0
LINE
  5
35C
  8
CV_SPECIALE
  6
BYBLOCK
 62
     3
 10
584.3251331920312168
 20
262.6498944579766999
 30
0.0
 11
604.3251331920312168
 21
282.6498944579765862
 31
0.0
  0
ENDSEC
  0
EOF
